[gd_scene load_steps=4 format=2]

[ext_resource path="res://assets/images/light.png" type="Texture" id=1]
[ext_resource path="res://scripts/LightSource.gd" type="Script" id=2]

[sub_resource type="CircleShape2D" id=1]

custom_solver_bias = 0.0
radius = 1920.0

[node name="LightSource" type="Light2D" index="0"]

enabled = true
editor_only = false
texture = ExtResource( 1 )
offset = Vector2( 0, 0 )
texture_scale = 1.0
color = Color( 1, 1, 1, 1 )
energy = 1.0
mode = 0
range_height = 0.0
range_z_min = -1024
range_z_max = 1024
range_layer_min = 0
range_layer_max = 0
range_item_cull_mask = 1
shadow_enabled = true
shadow_color = Color( 0, 0, 0, 0 )
shadow_buffer_size = 2048
shadow_gradient_length = 1.3
shadow_filter = 5
shadow_filter_smooth = 11.1
shadow_item_cull_mask = 1
script = ExtResource( 2 )
_sections_unfolded = [ "Range", "Shadow", "Visibility" ]
spriteImage = null
spriteScale = Vector2( 1, 1 )
dissipationRate = 0.5
drawRay = false

[node name="RayCast2D" type="RayCast2D" parent="." index="0"]

enabled = true
exclude_parent = true
cast_to = Vector2( 0, 50 )
collision_mask = 1
_sections_unfolded = [ "Transform" ]

[node name="Sprite" type="Sprite" parent="." index="1"]

light_mask = 1024
_sections_unfolded = [ "Transform", "Visibility" ]

[node name="Area2D" type="Area2D" parent="." index="2"]

editor/display_folded = true
visible = false
input_pickable = true
gravity_vec = Vector2( 0, 1 )
gravity = 98.0
linear_damp = 0.1
angular_damp = 1.0
audio_bus_override = false
audio_bus_name = "Master"

[node name="CollisionShape2D" type="CollisionShape2D" parent="Area2D" index="0"]

shape = SubResource( 1 )

[node name="VisibilityNotifier2D" type="VisibilityNotifier2D" parent="." index="3"]

rect = Rect2( -10, -10, 20, 20 )


